{
  "meta": {
    "title": "Json App Demonstration",
    "style": 2,
    "layoutSequence": "a a a",
    "cardBase": {
      "cardStyle": 2,
      "layoutColumn": "col-sm-12 col-md-6 col-lg-4 col-xl-4 col-x2-3 col-x4-2 col-x6-2 m-a-0 p-a-0",
      "cardHeight": "md"
    }
  },
  "data": [
    {
      "meta": {
        "name": "Terminal Example Workspace"
      },
      "data": [
        {
          "guid": "terminal",
          "blocks": [
            {
              "id": "plugin",
              "name": "h13a-jq-terminal",
              "options": {}
            }
          ]
        }
      ]
    }
  ]
}
